…
#> 75  UBERON_0002240               spinal cord          Nervous
#> 76  UBERON_0002245     cerebellar hemisphere          Nervous
#> 77  UBERON_0002367            prostate gland     Reproductive
#> 78  UBERON_0002369             adrenal gland        Endocrine
#> 79  UBERON_0002371               bone marrow Lymphatic/Immune
#> 80  UBERON_0002371               bone marrow         Skeletal
#> 81  UBERON_0002372                    tonsil Lymphatic/Immune
#> 82  UBERON_0002421               hippocampus          Nervous
#> 83 UBERON_00024818                      bone         Skeletal
#> 84  UBERON_0003126                   trachea      Respiratory
#> 85  UBERON_0006618          atrial appendage   Cardiovascular
#> 86  UBERON_0007650 gastroesophageal junction        Digestive
#> 87  UBERON_0007844                 cartilage         Skeletal
anatomogram_select("male", system = "Skeletal")          # all bones
#> # A tibble: 6,464 × 12
#>    tissue_id   tissue_name ontology element_index subpath polygon_id     x     y
#>    <chr>       <chr>       <chr>            <int>   <dbl> <chr>      <dbl> <dbl>
#>  1 UBERON_000… bone marrow UBERON               9       1 UBERON_00…  59.6 -141.
#>  2 UBERON_000… bone marrow UBERON               9       1 UBERON_00…  59.5 -141.
#>  3 UBERON_000… bone marrow UBERON               9       1 UBERON_00…  59.5 -141.
#>  4 UBERON_000… bone marrow UBERON               9       1 UBERON_00…  59.5 -141.
#>  5 UBERON_000… bone marrow UBERON               9       1 UBERON_00…  59.4 -141.
#>  6 UBERON_000… bone marrow UBERON               9       1 UBERON_00…  59.4 -141.
#>  7 UBERON_000… bone marrow UBERON               9       1 UBERON_00…  59.4 -141.
#>  8 UBERON_000… bone marrow UBERON               9       1 UBERON_00…  59.3 -141.
#>  9 UBERON_000… bone marrow UBERON               9       1 UBERON_00…  59.3 -141.
#> 10 UBERON_000… bone marrow UBERON               9       1 UBERON_00…  59.3 -141.
#> # ℹ 6,454 more rows
#> # ℹ 4 more variables: id <chr>, group <chr>, outline_role <chr>, system <chr>
anatomogram_select("male", organs = c(kidney = "high"))  # one organ, valued
#> # A tibble: 5,722 × 12
#>    tissue_id   tissue_name ontology element_index subpath polygon_id     x     y
#>    <chr>       <chr>       <chr>            <int>   <dbl> <chr>      <dbl> <dbl>
#>  1 UBERON_000… kidney      UBERON              74       1 UBERON_00…  60.2 -54.6
#>  2 UBERON_000… kidney      UBERON              74       1 UBERON_00…  59.9 -54.7
#>  3 UBERON_000… kidney      UBERON              74       1 UBERON_00…  59.6 -54.9
#>  4 UBERON_000… kidney      UBERON              74       1 UBERON_00…  59.4 -55.0
#>  5 UBERON_000… kidney      UBERON              74       1 UBERON_00…  59.1 -55.1
#>  6 UBERON_000… kidney      UBERON              74       1 UBERON_00…  58.9 -55.3
#>  7 UBERON_000… kidney      UBERON              74       1 UBERON_00…  58.7 -55.4
#>  8 UBERON_000… kidney      UBERON              74       1 UBERON_00…  58.6 -55.6
#>  9 UBERON_000… kidney      UBERON              74       1 UBERON_00…  58.4 -55.8
#> 10 UBERON_000… kidney      UBERON              74       1 UBERON_00…  58.3 -56.1
#> # ℹ 5,712 more rows
#> # ℹ 4 more variables: id <chr>, group <chr>, outline_role <chr>, value <chr>
```
